INFO     20:handle_logger.py:59 [2024-02-14 13:30:27] [info] [handle_data.py - replace_case_by_regular - 25] 需要替换的case:{'title': '商品列表所有信息正确', 'url': '/index.php?s=/api/goods/list', 'method': 'get', 'data': None, 'json_type': False, 'expected_result': '{"status":200,"message":"success"}', 'jsonpath': '{"goods_id":"$.data.list.[0].goods_id"}', 'login_status': False}
INFO     20:handle_logger.py:59 [2024-02-14 13:30:27] [info] [handle_request.py - send_request - 50] 请求的url：http://192.168.25.40:8088/index.php?s=/api/goods/list
INFO     20:handle_logger.py:59 [2024-02-14 13:30:27] [info] [handle_request.py - send_request - 51] 请求的请求方法：get
INFO     20:handle_logger.py:59 [2024-02-14 13:30:27] [info] [handle_request.py - send_request - 52] 请求的数据：None
INFO     20:handle_logger.py:59 [2024-02-14 13:30:27] [info] [handle_request.py - send_request - 53] 请求的header：{'storeid': '10001', 'platform': 'APP', 'access-token': 'None', 'content-type': 'application/json;charset=UTF-8'}
INFO     20:handle_logger.py:59 [2024-02-14 13:30:27] [info] [handle_request.py - send_request - 67] 接口返回值：{"status":200,"message":"success","data":{"list":{"total":27,"per_page":15,"current_page":1,"last_page":2,"data":[{"goods_sales":4294967295,"goods_id":10027,"goods_name":"小鲨鱼","goods_no":"26","video_id":0,"video_cover_id":0,"selling_point":"","spec_type":10,"goods_price_min":"2.50","goods_price_max":"2.50","line_price_min":"0.00","line_price_max":"0.00","stock_total":4294967192,"delivery_id":10001,"is_points_gift":1,"is_points_discount":1,"is_alone_points_discount":0,"points_discount_config":"","is_enable_grade":1,"is_alone_grade":0,"alone_grade_equity":[],"status":10,"goods_images":[{"file_id":10072,"group_id":0,"channel":10,"storage":"local","domain":"","file_type":10,"file_name":"aikun.png","file_path":"10001\/20231129\/6cd544a294315397f96ec5c58059991d.png","file_size":90839,"file_ext":"png","cover":"","uploader_id":0,"is_recycle":0,"is_delete":0,"update_time":"2023-11-29 11:41:04","preview_url":"http:\/\/192.168.25.40:8088\/uploads\/10001\/20231129\/6cd544a294315397f96ec5c58059991d.png","external_url":"http:\/\/192.168.25.40:8088\/uploads\/10001\/20231129\/6cd544a294315397f96ec5c58059991d.png"},{"file_id":10071,"group_id":0,"channel":10,"storage":"local","domain":"","file_type":10,"file_name":"坤坤游泳图.png","file_path":"10001\/20231129\/91dfdc76578d498a11ad7ce47aaca2f4.png","file_size":105731,"file_ext":"png","cover":"","uploader_id":0,"is_recycle":0,"is_delete":0,"update_time":"2023-11-29 11:33:15","preview_url":"http:\/\/192.168.25.40:8088\/uploads\/10001\/20231129\/91dfdc76578d498a11ad7ce47aaca2f4.png","external_url":"http:\/\/192.168.25.40:8088\/uploads\/10001\/20231129\/91dfdc76578d498a11ad7ce47aaca2f4.png"}],"goods_image":"http:\/\/192.168.25.40:8088\/uploads\/10001\/20231129\/6cd544a294315397f96ec5c58059991d.png","is_user_grade":false},{"goods_sales":4294967295,"goods_id":10026,"goods_name":"坤坤游泳图","goods_no":"25","video_id":0,"video_cover_id":0,"selling_point":"","spec_type":10,"goods_price_min":"1.00","goods_price_max":"1.00","line_price_min":"0.00","line_price_max":"0.00","stock_total":9998,"delivery_id":10001,"is_points_gift":1,"is_points_discount":1,"is_alone_points_discount":0,"points_discount_config":"","is_enable_grade":1,"is_alone_grade":0,"alone_grade_equity":[],"status":10,"goods_images":[{"file_id":10071,"group_id":0,"channel":10,"storage":"local","domain":"","file_type":10,"file_name":"坤坤游泳图.png","file_path":"10001\/20231129\/91dfdc76578d498a11ad7ce47aaca2f4.png","file_size":105731,"file_ext":"png","cover":"","uploader_id":0,"is_recycle":0,"is_delete":0,"update_time":"2023-11-29 11:33:15","preview_url":"http:\/\/192.168.25.40:8088\/uploads\/10001\/20231129\/91dfdc76578d498a11ad7ce47aaca2f4.png","external_url":"http:\/\/192.168.25.40:8088\/uploads\/10001\/20231129\/91dfdc76578d498a11ad7ce47aaca2f4.png"}],"goods_image":"http:\/\/192.168.25.40:8088\/uploads\/10001\/20231129\/91dfdc76578d498a11ad7ce47aaca2f4.png","is_user_grade":false},{"goods_sales":4294967295,"goods_id":10025,"goods_name":"蔡徐坤网红爆款背带裤","goods_no":"","video_id":0,"video_cover_id":0,"selling_point":"","spec_type":10,"goods_price_min":"2.50","goods_price_max":"2.50","line_price_min":"250.00","line_price_max":"250.00","stock_total":4294967293,"delivery_id":10001,"is_points_gift":1,"is_points_discount":1,"is_alone_points_discount":0,"points_discount_config":"","is_enable_grade":1,"is_alone_grade":0,"alone_grade_equity":[],"status":10,"goods_images":[{"file_id":10074,"group_id":0,"channel":10,"storage":"local","domain":"","file_type":10,"file_name":"坤坤头像版.png","file_path":"10001\/20240202\/a67da032b123b9764063c500abfc9184.png","file_size":5982,"file_ext":"png","cover":"","uploader_id":0,"is_recycle":0,"is_delete":0,"update_time":"2024-02-02 15:23:03","preview_url":"http:\/\/192.168.25.40:8088\/uploads\/10001\/20240202\/a67da032b123b9764063c500abfc9184.png","external_url":"http:\/\/192.168.25.40:8088\/uploads\/10001\/20240202\/a67da032b123b9764063c500abfc9184.png"},{"file_id":10075,"group_id":0,"channel":10,"storage":"local","domain":"","file_type":10,"file_name":"星元坤 .png","file_path":"10001\/20240202\/9a649bb956c750013301fca644c171a2.png","file_size":82280,"file_ext":"png","cover":"","uploader_id":0,"is_recycle":0,"is_delete":0,"update_time":"2024-02-02 15:23:14","preview_url":"http:\/\/192.168.25.40:8088\/uploads\/10001\/20240202\/9a649bb956c750013301fca644c171a2.png","external_url":"http:\/\/192.168.25.40:8088\/uploads\/10001\/20240202\/9a649bb956c750013301fca644c171a2.png"}],"goods_image":"http:\/\/192.168.25.40:8088\/uploads\/10001\/20240202\/a67da032b123b9764063c500abfc9184.png","is_user_grade":false},{"goods_sales":4294967295,"goods_id":10024,"goods_name":"特步运动短袖T恤男夏季速干衣男装宽松冰丝上衣体恤健身训练半袖","goods_no":"","video_id":0,"video_cover_id":0,"selling_point":"","spec_type":10,"goods_price_min":"49.00","goods_price_max":"49.00","line_price_min":"0.00","line_price_max":"0.00","stock_total":75352,"delivery_id":10001,"is_points_gift":1,"is_points_discount":1,"is_alone_points_discount":0,"points_discount_config":"","is_enable_grade":1,"is_alone_grade":0,"alone_grade_equity":[],"status":10,"goods_images":[{"file_id":10044,"group_id":0,"channel":10,"storage":"local","domain":"","file_type":10,"file_name":"O1CN01SuLVCT1OUliLmsqcs_!!353571709.jpg","file_path":"10001\/20230613\/48c5fcf4e31388270416f2981e37d6f8.jpg","file_size":406902,"file_ext":"jpg","cover":"","uploader_id":0,"is_recycle":0,"is_delete":0,"update_time":"2023-06-13 10:41:24","preview_url":"http:\/\/192.168.25.40:8088\/uploads\/10001\/20230613\/48c5fcf4e31388270416f2981e37d6f8.jpg","external_url":"http:\/\/192.168.25.40:8088\/uploads\/10001\/20230613\/48c5fcf4e31388270416f2981e37d6f8.jpg"}],"goods_image":"http:\/\/192.168.25.40:8088\/uploads\/10001\/20230613\/48c5fcf4e31388270416f2981e37d6f8.jpg","is_user_grade":false},{"goods_sales":4294967295,"goods_id":10023,"goods_name":"优衣库大师T【UNIQLO U系列新品】女装圆领T恤短袖","goods_no":"","video_id":0,"video_cover_id":0,"selling_point":"","spec_type":10,"goods_price_min":"79.00","goods_price_max":"79.00","line_price_min":"0.00","line_price_max":"0.00","stock_total":94861,"delivery_id":10001,"is_points_gift":1,"is_points_discount":1,"is_alone_points_discount":0,"points_discount_config":"","is_enable_grade":1,"is_alone_grade":0,"alone_grade_equity":[],"status":10,"goods_images":[{"file_id":10043,"group_id":0,"channel":10,"storage":"local","domain":"","file_type":10,"file_name":"O1CN01kaeA4K1ewHM9Rj3ZC_!!196993935.jpg","file_path":"10001\/20230613\/0360dd86404f784ec5dddc7a70281ede.jpg","file_size":226179,"file_ext":"jpg","cover":"","uploader_id":0,"is_recycle":0,"is_delete":0,"update_time":"2023-06-13 10:40:01","preview_url":"http:\/\/192.168.25.40:8088\/uploads\/10001\/20230613\/0360dd86404f784ec5dddc7a70281ede.jpg","external_url":"http:\/\/192.168.25.40:8088\/uploads\/10001\/20230613\/0360dd86404f784ec5dddc7a70281ede.jpg"}],"goods_image":"http:\/\/192.168.25.40:8088\/uploads\/10001\/20230613\/0360dd86404f784ec5dddc7a70281ede.jpg","is_user_grade":false},{"goods_sales":4294967295,"goods_id":10022,"goods_name":"CECE30寸加厚结实铝框拉杆箱旅行箱男网红行李箱大容量女学生28寸","goods_no":"","video_id":0,"video_cover_id":0,"selling_point":"","spec_type":10,"goods_price_min":"359.00","goods_price_max":"359.00","line_price_min":"0.00","line_price_max":"0.00","stock_total":94168,"delivery_id":10001,"is_points_gift":1,"is_points_discount":1,"is_alone_points_discount":0,"points_discount_config":"","is_enable_grade":1,"is_alone_grade":0,"alone_grade_equity":[],"status":10,"goods_images":[{"file_id":10042,"group_id":0,"channel":10,"storage":"local","domain":"","file_type":10,"file_name":"O1CN01EMonFN2NSBwke97N5_!!2200840029961.jpg","file_path":"10001\/20230613\/9ebbd94296c3d0246afdd4cd5614bd91.jpg","file_size":312693,"file_ext":"jpg","cover":"","uploader_id":0,"is_recycle":0,"is_delete":0,"update_time":"2023-06-13 10:37:27","preview_url":"http:\/\/192.168.25.40:8088\/uploads\/10001\/20230613\/9ebbd94296c3d0246afdd4cd5614bd91.jpg","external_url":"http:\/\/192.168.25.40:8088\/uploads\/10001\/20230613\/9ebbd94296c3d0246afdd4cd5614bd91.jpg"}],"goods_image":"http:\/\/192.168.25.40:8088\/uploads\/10001\/20230613\/9ebbd94296c3d0246afdd4cd5614bd91.jpg","is_user_grade":false},{"goods_sales":4294967295,"goods_id":10021,"goods_name":"【狂欢价】施华洛世奇 ONLY 手链 女 饰品 经典百搭","goods_no":"","video_id":0,"video_cover_id":0,"selling_point":"","spec_type":10,"goods_price_min":"509.00","goods_price_max":"509.00","line_price_min":"0.00","line_price_max":"0.00","stock_total":94243,"delivery_id":10001,"is_points_gift":1,"is_points_discount":1,"is_alone_points_discount":0,"points_discount_config":"","is_enable_grade":1,"is_alone_grade":0,"alone_grade_equity":[],"status":10,"goods_images":[{"file_id":10041,"group_id":0,"channel":10,"storage":"local","domain":"","file_type":10,"file_name":"O1CN01E3IMof1Umz6qy5EJc_!!2576722561.jpg","file_path":"10001\/20230613\/a6ed2fe0747ea91120bf86f9d52ba951.jpg","file_size":50504,"file_ext":"jpg","cover":"","uploader_id":0,"is_recycle":0,"is_delete":0,"update_time":"2023-06-13 10:35:56","preview_url":"http:\/\/192.168.25.40:8088\/uploads\/10001\/20230613\/a6ed2fe0747ea91120bf86f9d52ba951.jpg","external_url":"http:\/\/192.168.25.40:8088\/uploads\/10001\/20230613\/a6ed2fe0747ea91120bf86f9d52ba951.jpg"}],"goods_image":"http:\/\/192.168.25.40:8088\/uploads\/10001\/20230613\/a6ed2fe0747ea91120bf86f9d52ba951.jpg","is_user_grade":false},{"goods_sales":4294967295,"goods_id":10020,"goods_name":"李宁月白板鞋男鞋女鞋情侣款休闲鞋白色百搭时尚小白鞋运动鞋男款","goods_no":"","video_id":0,"video_cover_id":0,"selling_point":"","spec_type":10,"goods_price_min":"299.00","goods_price_max":"299.00","line_price_min":"0.00","line_price_max":"0.00","stock_total":91368,"delivery_id":10001,"is_points_gift":1,"is_points_discount":1,"is_alone_points_discount":0,"points_discount_config":"","is_enable_grade":1,"is_alone_grade":0,"alone_grade_equity":[],"status":10,"goods_images":[{"file_id":10040,"group_id":0,"channel":10,"storage":"local","domain":"","file_type":10,"file_name":"O1CN01gCb6WK2CKRYGcQfVI_!!92688455.jpg","file_path":"10001\/20230613\/a3e42b18b4c36e3f3da30da145844296.jpg","file_size":416718,"file_ext":"jpg","cover":"","uploader_id":0,"is_recycle":0,"is_delete":0,"update_time":"2023-06-13 10:33:47","preview_url":"http:\/\/192.168.25.40:8088\/uploads\/10001\/20230613\/a3e42b18b4c36e3f3da30da145844296.jpg","external_url":"http:\/\/192.168.25.40:8088\/uploads\/10001\/20230613\/a3e42b18b4c36e3f3da30da145844296.jpg"}],"goods_image":"http:\/\/192.168.25.40:8088\/uploads\/10001\/20230613\/a3e42b18b4c36e3f3da30da145844296.jpg","is_user_grade":false},{"goods_sales":4294967295,"goods_id":10019,"goods_name":"Nike耐克官方COURTROYALE AC男子运动鞋新款板鞋小白鞋复古BQ4222","goods_no":"","video_id":0,"video_cover_id":0,"selling_point":"","spec_type":10,"goods_price_min":"449.00","goods_price_max":"449.00","line_price_min":"0.00","line_price_max":"0.00","stock_total":95144,"delivery_id":10001,"is_points_gift":1,"is_points_discount":1,"is_alone_points_discount":0,"points_discount_config":"","is_enable_grade":1,"is_alone_grade":0,"alone_grade_equity":[],"status":10,"goods_images":[{"file_id":10039,"group_id":0,"channel":10,"storage":"local","domain":"","file_type":10,"file_name":"O1CN01iw7vdv1S29QJMRTHK_!!890482188.jpg","file_path":"10001\/20230613\/896680f1a15cdd56ee92884ff7bf2003.jpg","file_size":90968,"file_ext":"jpg","cover":"","uploader_id":0,"is_recycle":0,"is_delete":0,"update_time":"2023-06-13 10:32:01","preview_url":"http:\/\/192.168.25.40:8088\/uploads\/10001\/20230613\/896680f1a15cdd56ee92884ff7bf2003.jpg","external_url":"http:\/\/192.168.25.40:8088\/uploads\/10001\/20230613\/896680f1a15cdd56ee92884ff7bf2003.jpg"}],"goods_image":"http:\/\/192.168.25.40:8088\/uploads\/10001\/20230613\/896680f1a15cdd56ee92884ff7bf2003.jpg","is_user_grade":false},{"goods_sales":4294967295,"goods_id":10018,"goods_name":"安踏一体织透气跑步鞋女2023夏季飞织运动鞋软底减震女款慢跑鞋子","goods_no":"","video_id":0,"video_cover_id":0,"selling_point":"","spec_type":10,"goods_price_min":"239.00","goods_price_max":"239.00","line_price_min":"0.00","line_price_max":"0.00","stock_total":93671,"delivery_id":10001,"is_points_gift":1,"is_points_discount":1,"is_alone_points_discount":0,"points_discount_config":"","is_enable_grade":1,"is_alone_grade":0,"alone_grade_equity":[],"status":10,"goods_images":[{"file_id":10038,"group_id":0,"channel":10,"storage":"local","domain":"","file_type":10,"file_name":"O1CN01ilbRJR1RaDGyvdRqA_!!385132127.jpg","file_path":"10001\/20230613\/da5e01808a951afc3b541960f896f116.jpg","file_size":403257,"file_ext":"jpg","cover":"","uploader_id":0,"is_recycle":0,"is_delete":0,"update_time":"2023-06-13 10:30:42","preview_url":"http:\/\/192.168.25.40:8088\/uploads\/10001\/20230613\/da5e01808a951afc3b541960f896f116.jpg","external_url":"http:\/\/192.168.25.40:8088\/uploads\/10001\/20230613\/da5e01808a951afc3b541960f896f116.jpg"}],"goods_image":"http:\/\/192.168.25.40:8088\/uploads\/10001\/20230613\/da5e01808a951afc3b541960f896f116.jpg","is_user_grade":false},{"goods_sales":4294967295,"goods_id":10017,"goods_name":"FILA斐乐官方火星鞋二代情侣跑步鞋运动鞋老爹鞋男女时尚休闲鞋","goods_no":"","video_id":0,"video_cover_id":0,"selling_point":"","spec_type":10,"goods_price_min":"519.00","goods_price_max":"519.00","line_price_min":"0.00","line_price_max":"0.00","stock_total":94529,"delivery_id":10001,"is_points_gift":1,"is_points_discount":1,"is_alone_points_discount":0,"points_discount_config":"","is_enable_grade":1,"is_alone_grade":0,"alone_grade_equity":[],"status":10,"goods_images":[{"file_id":10037,"group_id":0,"channel":10,"storage":"local","domain":"","file_type":10,"file_name":"O1CN01RFDYF620osVEcCsva_!!0-item_pic.jpg","file_path":"10001\/20230613\/cb26c71753394b8220af242c6ae7b03c.jpg","file_size":182544,"file_ext":"jpg","cover":"","uploader_id":0,"is_recycle":0,"is_delete":0,"update_time":"2023-06-13 10:29:01","preview_url":"http:\/\/192.168.25.40:8088\/uploads\/10001\/20230613\/cb26c71753394b8220af242c6ae7b03c.jpg","external_url":"http:\/\/192.168.25.40:8088\/uploads\/10001\/20230613\/cb26c71753394b8220af242c6ae7b03c.jpg"}],"goods_image":"http:\/\/192.168.25.40:8088\/uploads\/10001\/20230613\/cb26c71753394b8220af242c6ae7b03c.jpg","is_user_grade":false},{"goods_sales":4294967295,"goods_id":10016,"goods_name":"回力男鞋夏季2023新款网面运动鞋男款防臭椰子跑步情侣飞织休闲鞋","goods_no":"","video_id":0,"video_cover_id":0,"selling_point":"","spec_type":10,"goods_price_min":"69.00","goods_price_max":"69.00","line_price_min":"0.00","line_price_max":"0.00","stock_total":75769,"delivery_id":10001,"is_points_gift":1,"is_points_discount":1,"is_alone_points_discount":0,"points_discount_config":"","is_enable_grade":1,"is_alone_grade":0,"alone_grade_equity":[],"status":10,"goods_images":[{"file_id":10036,"group_id":0,"channel":10,"storage":"local","domain":"","file_type":10,"file_name":"O1CN01q7moka1Vv3jdSrhIG_!!0-item_pic.jpg","file_path":"10001\/20230613\/61fe7d0ff8f17992cb7e7db76002d213.jpg","file_size":196084,"file_ext":"jpg","cover":"","uploader_id":0,"is_recycle":0,"is_delete":0,"update_time":"2023-06-13 10:26:29","preview_url":"http:\/\/192.168.25.40:8088\/uploads\/10001\/20230613\/61fe7d0ff8f17992cb7e7db76002d213.jpg","external_url":"http:\/\/192.168.25.40:8088\/uploads\/10001\/20230613\/61fe7d0ff8f17992cb7e7db76002d213.jpg"}],"goods_image":"http:\/\/192.168.25.40:8088\/uploads\/10001\/20230613\/61fe7d0ff8f17992cb7e7db76002d213.jpg","is_user_grade":false},{"goods_sales":4294967295,"goods_id":10015,"goods_name":"Nike\/SB耐克官方AIR FORCE 1 '07空军一号男子运动鞋夏季街舞CW2288","goods_no":"","video_id":0,"video_cover_id":0,"selling_point":"","spec_type":10,"goods_price_min":"99.00","goods_price_max":"99.00","line_price_min":"0.00","line_price_max":"0.00","stock_total":94561,"delivery_id":10001,"is_points_gift":1,"is_points_discount":1,"is_alone_points_discount":0,"points_discount_config":"","is_enable_grade":1,"is_alone_grade":0,"alone_grade_equity":[],"status":10,"goods_images":[{"file_id":10035,"group_id":0,"channel":10,"storage":"local","domain":"","file_type":10,"file_name":"O1CN01D3dy1c1S29NNsbBfJ_!!890482188.jpg","file_path":"10001\/20230613\/12dc94128ecc7aeb04e64bce87e0c252.jpg","file_size":97795,"file_ext":"jpg","cover":"","uploader_id":0,"is_recycle":0,"is_delete":0,"update_time":"2023-06-13 10:22:58","preview_url":"http:\/\/192.168.25.40:8088\/uploads\/10001\/20230613\/12dc94128ecc7aeb04e64bce87e0c252.jpg","external_url":"http:\/\/192.168.25.40:8088\/uploads\/10001\/20230613\/12dc94128ecc7aeb04e64bce87e0c252.jpg"}],"goods_image":"http:\/\/192.168.25.40:8088\/uploads\/10001\/20230613\/12dc94128ecc7aeb04e64bce87e0c252.jpg","is_user_grade":false},{"goods_sales":4294967295,"goods_id":10014,"goods_name":"AOC品牌一体机电脑23.8英寸高清超薄13代酷睿四核i3i5i7家用办公学习游戏支持壁挂台式整机全套837系列","goods_no":"","video_id":0,"video_cover_id":0,"selling_point":"","spec_type":10,"goods_price_min":"1599.00","goods_price_max":"1599.00","line_price_min":"0.00","line_price_max":"0.00","stock_total":94454,"delivery_id":10001,"is_points_gift":1,"is_points_discount":1,"is_alone_points_discount":0,"points_discount_config":"","is_enable_grade":1,"is_alone_grade":0,"alone_grade_equity":[],"status":10,"goods_images":[{"file_id":10034,"group_id":0,"channel":10,"storage":"local","domain":"","file_type":10,"file_name":"O1CN01ay4Ll11SSiP7CihQr_!!3871362246.jpg","file_path":"10001\/20230613\/0ce06d732aaa41ec03ab5034e93a5619.jpg","file_size":408095,"file_ext":"jpg","cover":"","uploader_id":0,"is_recycle":0,"is_delete":0,"update_time":"2023-06-13 10:20:38","preview_url":"http:\/\/192.168.25.40:8088\/uploads\/10001\/20230613\/0ce06d732aaa41ec03ab5034e93a5619.jpg","external_url":"http:\/\/192.168.25.40:8088\/uploads\/10001\/20230613\/0ce06d732aaa41ec03ab5034e93a5619.jpg"}],"goods_image":"http:\/\/192.168.25.40:8088\/uploads\/10001\/20230613\/0ce06d732aaa41ec03ab5034e93a5619.jpg","is_user_grade":false},{"goods_sales":4294967295,"goods_id":10013,"goods_name":"联想小新14 13代酷睿i5 14英寸2.2K轻薄本笔记本电脑大学生网课学习便携本商务办公电脑","goods_no":"","video_id":0,"video_cover_id":0,"selling_point":"","spec_type":10,"goods_price_min":"4799.00","goods_price_max":"4799.00","line_price_min":"0.00","line_price_max":"0.00","stock_total":74480,"delivery_id":10001,"is_points_gift":1,"is_points_discount":1,"is_alone_points_discount":0,"points_discount_config":"","is_enable_grade":1,"is_alone_grade":0,"alone_grade_equity":[],"status":10,"goods_images":[{"file_id":10033,"group_id":0,"channel":10,"storage":"local","domain":"","file_type":10,"file_name":"lenov.jpg","file_path":"10001\/20230613\/b55b30ce18f3312798130e5c3455d148.jpg","file_size":63082,"file_ext":"jpg","cover":"","uploader_id":0,"is_recycle":0,"is_delete":0,"update_time":"2023-06-13 10:18:22","preview_url":"http:\/\/192.168.25.40:8088\/uploads\/10001\/20230613\/b55b30ce18f3312798130e5c3455d148.jpg","external_url":"http:\/\/192.168.25.40:8088\/uploads\/10001\/20230613\/b55b30ce18f3312798130e5c3455d148.jpg"}],"goods_image":"http:\/\/192.168.25.40:8088\/uploads\/10001\/20230613\/b55b30ce18f3312798130e5c3455d148.jpg","is_user_grade":false}]}}}
INFO     20:handle_logger.py:59 [2024-02-14 13:30:27] [info] [handle_data_from_response.py - data_from_response - 28] 设置全局变量 key :goods_id   ====value：  10027
INFO     20:handle_logger.py:59 [2024-02-14 13:30:27] [info] [handle_data_from_response.py - data_from_response - 30] 目前全局变量中的值：dict_items([('__module__', 'Common.handle_data'), ('__dict__', <attribute '__dict__' of 'EnvData' objects>), ('__weakref__', <attribute '__weakref__' of 'EnvData' objects>), ('__doc__', None), ('phone', '18119333781'), ('token', 'b4cc4fd4d740f3cd893336daa16ca444'), ('label', '河南省'), ('value', '1495'), ('label2', '开封市'), ('value2', '1509'), ('label3', '祥符区'), ('value3', '1514'), ('address_id', '15216'), ('goods_id', '10027')])